Thu Feb 18 05:36:46 CET 2016
Preloading tcmalloc_minimal.so
Py:Athena            INFO including file "AthenaCommon/Preparation.py"
Py:Athena            INFO using release [AtlasOffline-21.0.0] [x86_64-slc6-gcc49-dbg] [21.X.Y-VAL/rel_3] -- built on [2016-02-16 22:41]
Py:Athena            INFO including file "AthenaCommon/Atlas.UnixStandardJob.py"
Warning in <TInterpreter::ReadRootmapFile>: class  CaloSampling found in CaloEventDict.so  is already in libISF_FastCaloSimParametrizationLib.so 
Py:Athena            INFO executing ROOT6Setup
[?1034hPy:Athena            INFO including file "AthenaCommon/Execution.py"
Py:Athena            INFO including file "TrigEventAthenaPool/TrigEventAthenaPool_20.1.7.2_test.py"
Py:Athena            INFO including file "AthenaPoolUtilities/TPCnvTest.py"
Py:ConfigurableDb    INFO Read module info for 4912 configurables from 10 genConfDb files
Py:ConfigurableDb WARNING Found 5 duplicates among the 10 genConfDb files :
Py:ConfigurableDb WARNING --------------------------------------------------
Py:ConfigurableDb WARNING   -<component name>: <module> - [ <duplicates> ]
Py:ConfigurableDb WARNING --------------------------------------------------
Py:ConfigurableDb WARNING   -TrigHLTJetHypo: TrigHLTJetHypo.TrigHLTJetHypoConf - ['TrigJetHypo.TrigJetHypoConf']
Py:ConfigurableDb WARNING   -DerivationFramework__JetCaloClusterThinning: DerivationFrameworkCalo.DerivationFrameworkCaloConf - ['DerivationFrameworkEGamma.DerivationFrameworkEGammaConf']
Py:ConfigurableDb WARNING   -DerivationFramework__CellDecorator: DerivationFrameworkCalo.DerivationFrameworkCaloConf - ['DerivationFrameworkEGamma.DerivationFrameworkEGammaConf']
Py:ConfigurableDb WARNING   -DerivationFramework__CaloClusterThinning: DerivationFrameworkCalo.DerivationFrameworkCaloConf - ['DerivationFrameworkEGamma.DerivationFrameworkEGammaConf']
Py:ConfigurableDb WARNING   -DerivationFramework__MaxCellDecorator: DerivationFrameworkCalo.DerivationFrameworkCaloConf - ['DerivationFrameworkEGamma.DerivationFrameworkEGammaConf']
Py:ConfigurableDb WARNING Fix your cmt/requirements file !!
Py:Athena            INFO including file "IdDictDetDescrCnv/IdDictDetDescrCnv_joboptions.py"
EventInfoMgtInit: Got release version  AtlasOffline-rel_3
Py:IOVDbSvc.CondDB    INFO Setting up conditions DB access to instance OFLP200
Data source lookup using /afs/cern.ch/atlas/software/builds/nightlies/devval/AtlasCore/rel_3/InstallArea/XML/AtlasAuthentication/dblookup.xml file
Py:Athena            INFO including file "AthenaCommon/runbatch.py"
Py:MetaReader     WARNING Found multiple values for AtlasRelease: ['AtlasProduction-20.1.7.2', 'AtlasProduction-17.0.6.4']. Looking for possible duplicates.
Py:MetaReader     WARNING Multiple values for AtlasRelease may mean the same, or the input file was produced in multi-step job. Ignoring all but the first entry: AtlasRelease = AtlasProduction-20.1.7.2
ApplicationMgr       INFO Updating Gaudi::PluginService::SetDebug(level) to level=0
ApplicationMgr    SUCCESS 
====================================================================================================================================
                                                   Welcome to ApplicationMgr (GaudiCoreSvc v3r4)
                                          running on lxplus056.cern.ch on Thu Feb 18 05:37:31 2016
====================================================================================================================================
ApplicationMgr       INFO Successfully loaded modules : AthenaServices
ApplicationMgr       INFO Application Manager Configured successfully
ApplicationMgr       INFO Updating Gaudi::PluginService::SetDebug(level) to level=0
StatusCodeSvc        INFO initialize
JobIDSvc             INFO Initializing JobIDSvc - package version AthenaServices-01-59-49
AthDictLoaderSvc     INFO in initialize...
AthDictLoaderSvc     INFO acquired Dso-registry
ClassIDSvc           INFO Initializing ClassIDSvc - package version CLIDComps-00-06-18
ClassIDSvc           INFO  getRegistryEntries: read 4694 CLIDRegistry entries for module ALL
ChronoStatSvc        INFO  Number of skipped events for MemStat-1
CoreDumpSvc          INFO install f-a-t-a-l handler... (flag = -1)
CoreDumpSvc          INFO Handling signals: 11(Segmentation fault) 7(Bus error) 4(Illegal instruction) 8(Floating point exception) 
DetectorStore        INFO Initializing DetectorStore - package version StoreGate-03-06-19
MetaDataSvc          INFO Initializing MetaDataSvc - package version AthenaServices-01-59-49
InputMetaDataStore   INFO Initializing InputMetaDataStore - package version StoreGate-03-06-19
MetaDataStore        INFO Initializing MetaDataStore - package version StoreGate-03-06-19
AthenaPoolCnvSvc     INFO Initializing AthenaPoolCnvSvc - package version AthenaPoolCnvSvc-00-28-12
PoolSvc              INFO Initializing PoolSvc - package version PoolSvc-00-25-00
PoolSvc              INFO io_register[PoolSvc](xmlcatalog_file:PoolFileCatalog.xml) [ok]
PoolSvc              INFO Set connectionsvc retry/timeout/IDLE timeout to  'ConnectionRetrialPeriod':300/ 'ConnectionRetrialTimeOut':3600/ 'ConnectionTimeOut':5 seconds with connection cleanup disabled
PoolSvc              INFO Frontier compression level set to 5
DBReplicaSvc         INFO Frontier server at (serverurl=http://atlasfrontier-ai.cern.ch:8000/atlr)(serverurl=http://aiatlas036.cern.ch:8000/atlr)(serverurl=http://aiatlas034.cern.ch:8000/atlr)(serverurl=http://ccfrontier.in2p3.fr:23128/ccin2p3-AtlasFrontier)(serverurl=http://ccsqfatlasli02.in2p3.fr:23128/ccin2p3-AtlasFrontier)(serverurl=http://ccsqfatlasli01.in2p3.fr:23128/ccin2p3-AtlasFrontier)(proxyurl=http://ca-proxy.cern.ch:3128)(proxyurl=http://ca18.cern.ch:3128)(proxyurl=http://ca17.cern.ch:3128)(proxyurl=http://atlast0fsquid.cern.ch:3128)(proxyurl=http://atlassquid1.cern.ch:3128)(proxyurl=http://atlassquid2.cern.ch:3128)(proxyurl=http://atlassquid4.cern.ch:3128) will be considered for COOL data
DBReplicaSvc         INFO Read replica configuration from /afs/cern.ch/atlas/software/builds/nightlies/devval/AtlasCore/rel_3/InstallArea/share/dbreplica.config
DBReplicaSvc         INFO Total of 10 servers found for host lxplus056.cern.ch [ATLF ATLAS_COOLPROD atlas_dd ATLAS_CONFIG INT8R INTR ATONR_COOL ATONR_CONF DEVDB11 ATLF ]
PoolSvc              INFO Successfully setup replica sorting algorithm
PoolSvc              INFO Re-initializing PoolSvc
PoolSvc              INFO Resolved path (via DATAPATH) is /afs/cern.ch/atlas/software/builds/nightlies/devval/AtlasCore/rel_3/InstallArea/share/poolcond/PoolCat_oflcond.xml
PoolSvc              INFO Resolved path (via ATLAS_POOLCOND_PATH) is /afs/cern.ch/atlas/conditions/poolcond/catalogue/poolcond/PoolCat_oflcond.xml
PoolSvc              INFO POOL WriteCatalog is xmlcatalog_file:PoolFileCatalog.xml
XMLFileCatalog Info Connecting to the catalog
PoolXMLFileCatalog Info Xerces-c initialization Number 0
XMLFileCatalog Info Connecting to the catalog
XMLFileCatalog Info Connecting to the catalog
PoolXMLFileCatalog Info File PoolFileCatalog.xml does not exist, a new one is created
PoolXMLFileCatalog Info Read-only filesystem
PoolXMLFileCatalog Info Read-only filesystem
EventSelector        INFO Initializing EventSelector - package version EventSelectorAthenaPool-00-19-03
TagMetaDataStore     INFO Initializing TagMetaDataStore - package version StoreGate-03-06-19
EventSelector        INFO reinitialization...
EventSelector        INFO EventSelection with query 
PoolSvc              INFO File is not in Catalog! Attempt to open it anyway.
RootCollection Info Opening Collection File /afs/cern.ch/atlas/maxidisk/d33/referencefiles/esd/ESD-20.1.7.2.pool.root in mode: READ
TClass::Init:0: RuntimeWarning: no dictionary for class CosmicMuonCollection_tlp1 is available
TClass::Init:0: RuntimeWarning: no dictionary for class MdtTrackSegmentCollection_p2 is available
TClass::Init:0: RuntimeWarning: no dictionary for class CosmicMuonCollection_p1 is available
RootCollection Info File /afs/cern.ch/atlas/maxidisk/d33/referencefiles/esd/ESD-20.1.7.2.pool.root opened
PoolSvc              INFO File is not in Catalog! Attempt to open it anyway.
PoolSvc              INFO Failed to open container to check POOL collection - trying.
DbSession Info     Open     DbSession    
Domain[ROOT_All] Info >   Access   DbDomain     READ      [ROOT_All] 
Domain[ROOT_All] Info ->  Access   DbDatabase   READ      [ROOT_All] 61EF9A6E-73FC-5F4B-F284-1F9FB2DD4FE6
Domain[ROOT_All] Info                           /afs/cern.ch/atlas/maxidisk/d33/referencefiles/esd/ESD-20.1.7.2.pool.root
RootDatabase.open Success /afs/cern.ch/atlas/maxidisk/d33/referencefiles/esd/ESD-20.1.7.2.pool.root File version:53425
/afs/cern.ch/atlas/maxidisk/d33/referencefiles/esd/ESD-20.1.7.2.pool.root Info Database being retired...
Domain[ROOT_All] Info ->  Deaccess DbDatabase   READ      [ROOT_All] 61EF9A6E-73FC-5F4B-F284-1F9FB2DD4FE6
Domain[ROOT_All] Info >   Deaccess DbDomain     READ      [ROOT_All] 
DbSession Info     Open     DbSession    
Domain[ROOT_All] Info >   Access   DbDomain     READ      [ROOT_All] 
Domain[ROOT_All] Info ->  Access   DbDatabase   READ      [ROOT_All] B844C45F-3B55-3444-8A2D-5093FBECF354
Domain[ROOT_All] Info                           /afs/cern.ch/atlas/maxidisk/d33/referencefiles/esd/ESD-20.1.7.2.pool.root
RootDatabase.open Success /afs/cern.ch/atlas/maxidisk/d33/referencefiles/esd/ESD-20.1.7.2.pool.root File version:53425
ImplicitCollection Info Opened the implicit collection with connection string "PFN:/afs/cern.ch/atlas/maxidisk/d33/referencefiles/esd/ESD-20.1.7.2.pool.root"
ImplicitCollection Info and a name "POOLContainer(DataHeader)"
PoolSvc              INFO Failed to find container MetaDataHdrDataHeader to get Token.
EventPersistenc...   INFO Added successfully Conversion service:AthenaPoolCnvSvc
AthenaPoolAddre...   INFO Initializing AthenaPoolAddressProviderSvc - package version EventSelectorAthenaPool-00-19-03
IOVDbSvc             INFO Opened read transaction for POOL PersistencySvc
IOVDbSvc             INFO Only 5 POOL conditions files will be open at once
IOVDbSvc             INFO Cache alignment will be done in 3 slices
IOVDbSvc             INFO Read from meta data only for folder /TagInfo
IOVDbSvc             INFO Initialised with 1 connections and 1 folders
IOVDbSvc             INFO Service IOVDbSvc initialised successfully
ProxyProviderSvc     INFO Initializing ProxyProviderSvc - package version SGComps-00-02-04
IOVDbSvc             INFO Folder /TagInfo will be taken from file metadata
IOVDbSvc             INFO Found 15 metadata containers in input file, 1 will be used
IOVSvc               INFO No IOVSvcTool associated with store "StoreGateSvc"
StoreGateSvc         INFO Initializing StoreGateSvc - package version StoreGate-03-06-19
IOVSvcTool           INFO IOVRanges will be checked at every Event
IOVDbSvc             INFO Added taginfo remove for /TagInfo
DetDescrCnvSvc       INFO  initializing 
DetDescrCnvSvc       INFO Found DetectorStore service
DetDescrCnvSvc       INFO  filling proxies for detector managers 
DetDescrCnvSvc       INFO  filling address for CaloTTMgr with CLID 117659265 and storage type 68 to detector store 
DetDescrCnvSvc       INFO  filling address for CaloMgr with CLID 4548337 and storage type 68 to detector store 
DetDescrCnvSvc       INFO  filling address for CaloSuperCellMgr with CLID 241807251 and storage type 68 to detector store 
DetDescrCnvSvc       INFO  filling address for CaloIdManager with CLID 125856940 and storage type 68 to detector store 
DetDescrCnvSvc       INFO  filling address for IdDict with CLID 2411 and storage type 68 to detector store 
DetDescrCnvSvc       INFO  filling address for AtlasID with CLID 164875623 and storage type 68 to detector store 
DetDescrCnvSvc       INFO  filling address for PixelID with CLID 2516 and storage type 68 to detector store 
DetDescrCnvSvc       INFO  filling address for SCT_ID with CLID 2517 and storage type 68 to detector store 
DetDescrCnvSvc       INFO  filling address for TRT_ID with CLID 2518 and storage type 68 to detector store 
DetDescrCnvSvc       INFO  filling address for SiliconID with CLID 129452393 and storage type 68 to detector store 
DetDescrCnvSvc       INFO  filling address for LArEM_ID with CLID 163583365 and storage type 68 to detector store 
DetDescrCnvSvc       INFO  filling address for LArEM_SuperCell_ID with CLID 99488227 and storage type 68 to detector store 
DetDescrCnvSvc       INFO  filling address for LArHEC_ID with CLID 3870484 and storage type 68 to detector store 
DetDescrCnvSvc       INFO  filling address for LArHEC_SuperCell_ID with CLID 254277678 and storage type 68 to detector store 
DetDescrCnvSvc       INFO  filling address for LArFCAL_ID with CLID 45738051 and storage type 68 to detector store 
DetDescrCnvSvc       INFO  filling address for LArFCAL_SuperCell_ID with CLID 12829437 and storage type 68 to detector store 
DetDescrCnvSvc       INFO  filling address for LArMiniFCAL_ID with CLID 79264204 and storage type 68 to detector store 
DetDescrCnvSvc       INFO  filling address for LArOnlineID with CLID 158698068 and storage type 68 to detector store 
DetDescrCnvSvc       INFO  filling address for TTOnlineID with CLID 38321944 and storage type 68 to detector store 
DetDescrCnvSvc       INFO  filling address for LArOnline_SuperCellID with CLID 115600394 and storage type 68 to detector store 
DetDescrCnvSvc       INFO  filling address for LArHVLineID with CLID 27863673 and storage type 68 to detector store 
DetDescrCnvSvc       INFO  filling address for LArElectrodeID with CLID 80757351 and storage type 68 to detector store 
DetDescrCnvSvc       INFO  filling address for TileID with CLID 2901 and storage type 68 to detector store 
DetDescrCnvSvc       INFO  filling address for Tile_SuperCell_ID with CLID 49557789 and storage type 68 to detector store 
DetDescrCnvSvc       INFO  filling address for TileHWID with CLID 2902 and storage type 68 to detector store 
DetDescrCnvSvc       INFO  filling address for TileTBID with CLID 2903 and storage type 68 to detector store 
DetDescrCnvSvc       INFO  filling address for MDTIDHELPER with CLID 4170 and storage type 68 to detector store 
DetDescrCnvSvc       INFO  filling address for CSCIDHELPER with CLID 4171 and storage type 68 to detector store 
DetDescrCnvSvc       INFO  filling address for RPCIDHELPER with CLID 4172 and storage type 68 to detector store 
DetDescrCnvSvc       INFO  filling address for TGCIDHELPER with CLID 4173 and storage type 68 to detector store 
DetDescrCnvSvc       INFO  filling address for STGCIDHELPER with CLID 4174 and storage type 68 to detector store 
DetDescrCnvSvc       INFO  filling address for MMIDHELPER with CLID 4175 and storage type 68 to detector store 
DetDescrCnvSvc       INFO  filling address for CaloLVL1_ID with CLID 108133391 and storage type 68 to detector store 
DetDescrCnvSvc       INFO  filling address for CaloCell_ID with CLID 123500438 and storage type 68 to detector store 
DetDescrCnvSvc       INFO  filling address for CaloCell_SuperCell_ID with CLID 128365736 and storage type 68 to detector store 
DetDescrCnvSvc       INFO  filling address for CaloDM_ID with CLID 167756483 and storage type 68 to detector store 
DetDescrCnvSvc       INFO  filling address for ZdcID with CLID 190591643 and storage type 68 to detector store 
GeoModelSvc          INFO Retrieved DetectorTools = PrivateToolHandleArray([])
CORAL/Services/ConnectionService Info Re-ordering 3 replicas using installed algorithm
CORAL/Services/ConnectionService Info Sorting algorithm selected 4 replicas
CORAL/Services/ConnectionService Warning Failed to connect to service geomDB/geomDB_sqlite (coral::Exception): 'CORAL/RelationalPlugins/sqlite ( CORAL : "Connection::connect" from "/afs/cern.ch/user/s/ssnyder/atlas-work3d/Trigger/TrigEvent/TrigEventAthenaPool/run/TrigEventAthenaPool_20.1.7.2-x86_64-slc6-gcc49-dbg/geomDB is not writable" )' - do NOT retry
CORAL/Services/ConnectionService Info Connection to service "geomDB/geomDB_sqlite" with connectionID=C#3 will be disconnected
CORAL/Services/ConnectionService Warning Failure while attempting to connect to "sqlite_file:geomDB/geomDB_sqlite": CORAL/RelationalPlugins/sqlite ( CORAL : "Connection::connect" from "/afs/cern.ch/user/s/ssnyder/atlas-work3d/Trigger/TrigEvent/TrigEventAthenaPool/run/TrigEventAthenaPool_20.1.7.2-x86_64-slc6-gcc49-dbg/geomDB is not writable" )
CORAL/RelationalPlugins/frontier Info The current compresion level is 5
CORAL/Services/ConnectionService Info New connection to service "ATLF/()" with connectionID=C#4 has been connected
CORAL/Services/ConnectionService Info New user session with sessionID=S#2(C#4.s#1) started on connectionID=C#4 to service "ATLF/()" for user "" in read-only mode
CORAL/Services/ConnectionService Info User session with sessionID=S#2(C#4.s#1) will be ended on connectionID=C#4
CORAL/Services/ConnectionService Info Connection to service "ATLF/()" with connectionID=C#4 will be disconnected
ClassIDSvc           INFO  getRegistryEntries: read 10658 CLIDRegistry entries for module ALL
AthenaEventLoopMgr   INFO Initializing AthenaEventLoopMgr - package version AthenaServices-01-59-49
AthMasterSeq         INFO Member list: AthSequencer/AthAlgSeq, AthSequencer/AthOutSeq, AthSequencer/AthRegSeq
AthAlgSeq            INFO Member list: PyAthena::Alg/dumper
PyComponentMgr       INFO Initializing PyComponentMgr...
dumper               INFO Initializing dumper...
HistogramPersis...WARNING Histograms saving not required.
AthenaEventLoopMgr   INFO Setup EventSelector service EventSelector
ActiveStoreSvc       INFO Initializing ActiveStoreSvc - package version StoreGate-03-06-19
ApplicationMgr       INFO Application Manager Initialized successfully
InputMetaDataStore   INFO Start InputMetaDataStore
MetaDataStore        INFO Start MetaDataStore
TagMetaDataStore     INFO Start TagMetaDataStore
/afs/cern.ch/atlas/maxidisk/d33/referencefiles/esd/ESD-20.1.7.2.pool.root Info Database being retired...
Domain[ROOT_All] Info ->  Deaccess DbDatabase   READ      [ROOT_All] B844C45F-3B55-3444-8A2D-5093FBECF354
Domain[ROOT_All] Info >   Deaccess DbDomain     READ      [ROOT_All] 
RootCollection Info Opening Collection File /afs/cern.ch/atlas/maxidisk/d33/referencefiles/esd/ESD-20.1.7.2.pool.root in mode: READ
RootCollection Info File /afs/cern.ch/atlas/maxidisk/d33/referencefiles/esd/ESD-20.1.7.2.pool.root opened
DbSession Info     Open     DbSession    
Domain[ROOT_All] Info >   Access   DbDomain     READ      [ROOT_All] 
Domain[ROOT_All] Info ->  Access   DbDatabase   READ      [ROOT_All] B844C45F-3B55-3444-8A2D-5093FBECF354
Domain[ROOT_All] Info                           /afs/cern.ch/atlas/maxidisk/d33/referencefiles/esd/ESD-20.1.7.2.pool.root
RootDatabase.open Success /afs/cern.ch/atlas/maxidisk/d33/referencefiles/esd/ESD-20.1.7.2.pool.root File version:53425
ImplicitCollection Info Opened the implicit collection with connection string "PFN:/afs/cern.ch/atlas/maxidisk/d33/referencefiles/esd/ESD-20.1.7.2.pool.root"
ImplicitCollection Info and a name "POOLContainer(DataHeader)"
ClassIDSvc           INFO  getRegistryEntries: read 689 CLIDRegistry entries for module ALL
StoreGateSvc         INFO Start StoreGateSvc
DetectorStore        INFO Start DetectorStore
ApplicationMgr       INFO Application Manager Started successfully
PoolSvc              INFO Failed to find container MetaDataHdrDataHeader to get Token.
AthenaEventLoopMgr   INFO   ===>>>  start of run 189751    <<<===
EventPersistenc...   INFO Added successfully Conversion service:DetDescrCnvSvc
EventPersistenc...   INFO Added successfully Conversion service:TagInfoMgr
IOVDbSvc             INFO Global tag: OFLCOND-SDR-BS7T-05-24 set from input file
GeoModelSvc       WARNING *** *** Geometry configured through jobOptions does not match TagInfo tags! *** ***
GeoModelSvc          INFO ** Job Option configuration: 
GeoModelSvc          INFO * ATLAS tag: ATLAS-GEO-10-00-00
GeoModelSvc          INFO * InDet tag: 
GeoModelSvc          INFO * Pixel tag: 
GeoModelSvc          INFO * SCT   tag: 
GeoModelSvc          INFO * TRT   tag: 
GeoModelSvc          INFO * LAr   tag: 
GeoModelSvc          INFO * Tile  tag: 
GeoModelSvc          INFO * Muon  tag: 
GeoModelSvc          INFO * Calo  tag: 
GeoModelSvc          INFO * MagField  tag: 
GeoModelSvc          INFO * CavernInfra  tag: 
GeoModelSvc          INFO * ForwardDetectors  tag: 
GeoModelSvc          INFO ** TAG INFO configuration: 
GeoModelSvc          INFO * ATLAS tag: ATLAS-GEO-18-01-01
AthenaEventLoopMgr   INFO   ===>>>  start processing event #35002, run #189751 0 events processed so far  <<<===
ClassIDSvc           INFO  getRegistryEntries: read 36 CLIDRegistry entries for module ALL
ClassIDSvc           INFO  getRegistryEntries: read 3895 CLIDRegistry entries for module ALL
ClassIDSvc           INFO  getRegistryEntries: read 66 CLIDRegistry entries for module ALL
ClassIDSvc           INFO  getRegistryEntries: read 48 CLIDRegistry entries for module ALL
ClassIDSvc           INFO  getRegistryEntries: read 10 CLIDRegistry entries for module ALL
ClassIDSvc           INFO  getRegistryEntries: read 79 CLIDRegistry entries for module ALL
AthenaEventLoopMgr   INFO   ===>>>  done processing event #35002, run #189751 1 events processed so far  <<<===
AthenaEventLoopMgr   INFO   ===>>>  start processing event #35003, run #189751 1 events processed so far  <<<===
AthenaEventLoopMgr   INFO   ===>>>  done processing event #35003, run #189751 2 events processed so far  <<<===
AthenaEventLoopMgr   INFO   ===>>>  start processing event #35004, run #189751 2 events processed so far  <<<===
AthenaEventLoopMgr   INFO   ===>>>  done processing event #35004, run #189751 3 events processed so far  <<<===
AthenaEventLoopMgr   INFO   ===>>>  start processing event #35005, run #189751 3 events processed so far  <<<===
AthenaEventLoopMgr   INFO   ===>>>  done processing event #35005, run #189751 4 events processed so far  <<<===
AthenaEventLoopMgr   INFO   ===>>>  start processing event #35006, run #189751 4 events processed so far  <<<===
AthenaEventLoopMgr   INFO   ===>>>  done processing event #35006, run #189751 5 events processed so far  <<<===
AthenaEventLoopMgr   INFO   ===>>>  start processing event #35007, run #189751 5 events processed so far  <<<===
AthenaEventLoopMgr   INFO   ===>>>  done processing event #35007, run #189751 6 events processed so far  <<<===
AthenaEventLoopMgr   INFO   ===>>>  start processing event #35008, run #189751 6 events processed so far  <<<===
AthenaEventLoopMgr   INFO   ===>>>  done processing event #35008, run #189751 7 events processed so far  <<<===
AthenaEventLoopMgr   INFO   ===>>>  start processing event #35009, run #189751 7 events processed so far  <<<===
AthenaEventLoopMgr   INFO   ===>>>  done processing event #35009, run #189751 8 events processed so far  <<<===
AthenaEventLoopMgr   INFO   ===>>>  start processing event #35010, run #189751 8 events processed so far  <<<===
AthenaEventLoopMgr   INFO   ===>>>  done processing event #35010, run #189751 9 events processed so far  <<<===
AthenaEventLoopMgr   INFO   ===>>>  start processing event #35011, run #189751 9 events processed so far  <<<===
AthenaEventLoopMgr   INFO   ===>>>  done processing event #35011, run #189751 10 events processed so far  <<<===
/afs/cern.ch/atlas/maxidisk/d33/referencefiles/esd/ESD-20.1.7.2.pool.root Info Database being retired...
Domain[ROOT_All] Info ->  Deaccess DbDatabase   READ      [ROOT_All] B844C45F-3B55-3444-8A2D-5093FBECF354
Domain[ROOT_All] Info >   Deaccess DbDomain     READ      [ROOT_All] 
AthenaEventLoopMgr   INFO No more events in event selection 
DetectorStore        INFO Stop DetectorStore
StoreGateSvc         INFO Stop StoreGateSvc
StoreGateSvc         INFO stop: setting service priority to 101 so that event stores get finalized and cleared before other stores
TagMetaDataStore     INFO Stop TagMetaDataStore
MetaDataStore        INFO Stop MetaDataStore
InputMetaDataStore   INFO Stop InputMetaDataStore
ApplicationMgr       INFO Application Manager Stopped successfully
dumper               INFO Finalizing dumper...
AthAlgSeq            INFO Finalizing AthAlgSeq...
AthOutSeq            INFO Finalizing AthOutSeq...
AthRegSeq            INFO Finalizing AthRegSeq...
AthMasterSeq         INFO Finalizing AthMasterSeq...
StoreGateSvc         INFO Finalizing StoreGateSvc - package version StoreGate-03-06-19
PyComponentMgr       INFO Finalizing PyComponentMgr...
DetectorStore        INFO Finalizing DetectorStore - package version StoreGate-03-06-19
IOVDbSvc             INFO Folder /TagInfo (AttrListColl) db-read 0/2 objs/chan/bytes 2/0/0 ((     0.00 ))s
IOVDbSvc             INFO Total payload read from COOL: 0 bytes in ((      0.00 ))s
IOVDbSvc             INFO Connection sqlite://;schema=mycool.db;dbname=OFLP200 : nConnect: 0 nFolders: 0 ReadTime: ((     0.00 ))s
TagMetaDataStore     INFO Finalizing TagMetaDataStore - package version StoreGate-03-06-19
PoolSvc              INFO I/O finalization...
XMLFileCatalog Info Updating the catalog
PoolXMLFileCatalog Info XercesC termination number 0
MetaDataStore        INFO Finalizing MetaDataStore - package version StoreGate-03-06-19
InputMetaDataStore   INFO Finalizing InputMetaDataStore - package version StoreGate-03-06-19
AthDictLoaderSvc     INFO in finalize...
ToolSvc              INFO Removing all tools created by ToolSvc
*****Chrono*****     INFO ****************************************************************************************************
*****Chrono*****     INFO  The Final CPU consumption ( Chrono ) Table (ordered)
*****Chrono*****     INFO ****************************************************************************************************
AthenaSealSvc::...   INFO Time User   : Tot=    0 [us]                                             #=  1
ChronoStatSvc        INFO Time User   : Tot= 52.5  [s]                                             #=  1
*****Chrono*****     INFO ****************************************************************************************************
ChronoStatSvc.f...   INFO  Service finalized successfully 
ApplicationMgr       INFO Application Manager Finalized successfully
ApplicationMgr       INFO Application Manager Terminated successfully
Py:Athena            INFO leaving with code 0: "successful run"
CORAL/Services/ConnectionService Info Deleting the ConnectionPool
